Previsão-de-Uso-de-Energia.utf8
…
Fevereiro, março e abril teve o mesmo consumo total, seguidos um pouco mais baixo maio e janeiro respectivamente.

Quantidade total de energia gasta por dia

df_train %>%
  select(Appliances,Day)%>%
  group_by(Day)%>%
  summarise(sum(Appliances))

## `summarise()` ungrouping output (override with `.groups` argument)

## # A tibble: 31 x 2
##      Day `sum(Appliances)`
##    <int>             <dbl>
##  1     1             40650
##  2     2             33790
##  3     3             37250
##  4     4             53330
##  5     5             37770
##  6     6             39080
##  7     7             42490
##  8     8             47270
##  9     9             43390
## 10    10             37310
## # ... with 21 more rows
…
Segunda, sexta e sábado lideram com o maior consumo, seguido dos demais dias que possuem praticamente o mesmo consumo.

Quantidade total de energia gasta por hora

df_train %>%
  select(Appliances,Hour)%>%
  group_by(Hour)%>%
  summarise(total = sum(Appliances))

## `summarise()` ungrouping output (override with `.groups` argument)

## # A tibble: 24 x 2
##     Hour total
##    <int> <dbl>
##  1     0 32860
##  2     1 31100
##  3     2 30710
##  4     3 30380
##  5     4 29910
##  6     5 30810
##  7     6 34360
##  8     7 49190
##  9     8 64580
## 10     9 71400
## # ... with 14 more rows
…
